<?xml version="1.0" encoding="UTF-8" standalone="no"?>
<!-- Created with Inkscape (http://www.inkscape.org/) -->
<svg
   xmlns:dc="http://purl.org/dc/elements/1.1/"
   xmlns:cc="http://creativecommons.org/ns#"
   xmlns:rdf="http://www.w3.org/1999/02/22-rdf-syntax-ns#"
   xmlns:svg="http://www.w3.org/2000/svg"
   xmlns="http://www.w3.org/2000/svg"
   xmlns:sodipodi="http://sodipodi.sourceforge.net/DTD/sodipodi-0.dtd"
   xmlns:inkscape="http://www.inkscape.org/namespaces/inkscape"
   width="765"
   height="990"
   id="svg2383"
   sodipodi:version="0.32"
   inkscape:version="0.46"
   version="1.0"
   sodipodi:docname="foo6.svg"
   inkscape:output_extension="org.inkscape.output.svg.inkscape">
  <defs
     id="defs2385">
    <inkscape:perspective
       sodipodi:type="inkscape:persp3d"
       inkscape:vp_x="0 : 382.5 : 1"
       inkscape:vp_y="0 : 1000 : 0"
       inkscape:vp_z="990 : 382.5 : 1"
       inkscape:persp3d-origin="495 : 255 : 1"
       id="perspective2392" />
    <inkscape:perspective
       sodipodi:type="inkscape:persp3d"
       inkscape:vp_x="0 : 31.195286 : 1"
       inkscape:vp_y="0 : 1000 : 0"
       inkscape:vp_z="140.75592 : 31.195286 : 1"
       inkscape:persp3d-origin="70.37796 : 20.796857 : 1"
       id="perspective11" />
    <inkscape:perspective
       id="perspective3454"
       inkscape:persp3d-origin="372.04724 : 350.78739 : 1"
       inkscape:vp_z="744.09448 : 526.18109 : 1"
       inkscape:vp_y="0 : 1000 : 0"
       inkscape:vp_x="0 : 526.18109 : 1"
       sodipodi:type="inkscape:persp3d" />
    <inkscape:perspective
       sodipodi:type="inkscape:persp3d"
       inkscape:vp_x="0 : 526.18109 : 1"
       inkscape:vp_y="0 : 1000 : 0"
       inkscape:vp_z="744.09448 : 526.18109 : 1"
       inkscape:persp3d-origin="372.04724 : 350.78739 : 1"
       id="perspective3456" />
    <inkscape:perspective
       sodipodi:type="inkscape:persp3d"
       inkscape:vp_x="0 : 526.18109 : 1"
       inkscape:vp_y="0 : 1000 : 0"
       inkscape:vp_z="744.09448 : 526.18109 : 1"
       inkscape:persp3d-origin="372.04724 : 350.78739 : 1"
       id="perspective3311" />
    <inkscape:perspective
       sodipodi:type="inkscape:persp3d"
       inkscape:vp_x="0 : 526.18109 : 1"
       inkscape:vp_y="0 : 1000 : 0"
       inkscape:vp_z="744.09448 : 526.18109 : 1"
       inkscape:persp3d-origin="372.04724 : 350.78739 : 1"
       id="perspective3364" />
    <inkscape:perspective
       sodipodi:type="inkscape:persp3d"
       inkscape:vp_x="0 : 526.18109 : 1"
       inkscape:vp_y="0 : 1000 : 0"
       inkscape:vp_z="744.09448 : 526.18109 : 1"
       inkscape:persp3d-origin="372.04724 : 350.78739 : 1"
       id="perspective3687" />
    <clipPath
       clipPathUnits="userSpaceOnUse"
       id="clipPath3337">
      <rect
         style="opacity:1;fill:#edd400;fill-opacity:1;stroke:none;stroke-width:8;stroke-linejoin:round;stroke-miterlimit:4;stroke-dasharray:none;stroke-opacity:1"
         id="rect3339"
         width="173.34364"
         height="370.90997"
         x="-195.67393"
         y="79.011879" />
    </clipPath>
    <clipPath
       clipPathUnits="userSpaceOnUse"
       id="clipPath3333">
      <rect
         style="opacity:1;fill:#edd400;fill-opacity:1;stroke:none;stroke-width:8;stroke-linejoin:round;stroke-miterlimit:4;stroke-dasharray:none;stroke-opacity:1"
         id="rect3335"
         width="173.34364"
         height="370.90997"
         x="-195.67393"
         y="79.011879"
         transform="matrix(0.7071068,0.7071068,-0.7071068,0.7071068,0,0)" />
    </clipPath>
    <clipPath
       clipPathUnits="userSpaceOnUse"
       id="clipPath3329">
      <rect
         style="opacity:1;fill:#edd400;fill-opacity:1;stroke:none;stroke-width:8;stroke-linejoin:round;stroke-miterlimit:4;stroke-dasharray:none;stroke-opacity:1"
         id="rect3331"
         width="173.34364"
         height="370.90997"
         x="-195.67393"
         y="79.011879"
         transform="matrix(0.7071068,0.7071068,-0.7071068,0.7071068,0,0)" />
    </clipPath>
    <clipPath
       clipPathUnits="userSpaceOnUse"
       id="clipPath3325">
      <rect
         style="opacity:1;fill:#edd400;fill-opacity:1;stroke:none;stroke-width:8;stroke-linejoin:round;stroke-miterlimit:4;stroke-dasharray:none;stroke-opacity:1"
         id="rect3327"
         width="173.34364"
         height="370.90997"
         x="-195.67393"
         y="79.011879"
         transform="matrix(0.7071068,0.7071068,-0.7071068,0.7071068,0,0)" />
    </clipPath>
    <clipPath
       clipPathUnits="userSpaceOnUse"
       id="clipPath3321">
      <rect
         style="opacity:1;fill:#edd400;fill-opacity:1;stroke:none;stroke-width:8;stroke-linejoin:round;stroke-miterlimit:4;stroke-dasharray:none;stroke-opacity:1"
         id="rect3323"
         width="173.34364"
         height="370.90997"
         x="-195.67393"
         y="79.011879"
         transform="matrix(0.7071068,0.7071068,-0.7071068,0.7071068,0,0)" />
    </clipPath>
    <clipPath
       clipPathUnits="userSpaceOnUse"
       id="clipPath3317">
      <rect
         style="opacity:1;fill:#edd400;fill-opacity:1;stroke:none;stroke-width:8;stroke-linejoin:round;stroke-miterlimit:4;stroke-dasharray:none;stroke-opacity:1"
         id="rect3319"
         width="173.34364"
         height="370.90997"
         x="-195.67393"
         y="79.011879"
         transform="matrix(0.7071068,0.7071068,-0.7071068,0.7071068,0,0)" />
    </clipPath>
    <clipPath
       clipPathUnits="userSpaceOnUse"
       id="clipPath3313">
      <rect
         style="opacity:1;fill:#edd400;fill-opacity:1;stroke:none;stroke-width:8;stroke-linejoin:round;stroke-miterlimit:4;stroke-dasharray:none;stroke-opacity:1"
         id="rect3315"
         width="173.34364"
         height="370.90997"
         x="-195.67393"
         y="79.011879"
         transform="matrix(0.7071068,0.7071068,-0.7071068,0.7071068,0,0)" />
    </clipPath>
    <clipPath
       clipPathUnits="userSpaceOnUse"
       id="clipPath3309">
      <rect
         style="opacity:1;fill:#edd400;fill-opacity:1;stroke:none;stroke-width:8;stroke-linejoin:round;stroke-miterlimit:4;stroke-dasharray:none;stroke-opacity:1"
         id="rect3311"
         width="173.34364"
         height="370.90997"
         x="-195.67393"
         y="79.011879"
         transform="matrix(0.7071068,0.7071068,-0.7071068,0.7071068,0,0)" />
    </clipPath>
    <clipPath
       clipPathUnits="userSpaceOnUse"
       id="clipPath3305">
      <rect
         style="opacity:1;fill:#edd400;fill-opacity:1;stroke:none;stroke-width:8;stroke-linejoin:round;stroke-miterlimit:4;stroke-dasharray:none;stroke-opacity:1"
         id="rect3307"
         width="173.34364"
         height="370.90997"
         x="-195.67393"
         y="79.011879"
         transform="matrix(0.7071068,0.7071068,-0.7071068,0.7071068,0,0)" />
    </clipPath>
    <clipPath
       clipPathUnits="userSpaceOnUse"
       id="clipPath3301">
      <rect
         style="opacity:1;fill:#edd400;fill-opacity:1;stroke:none;stroke-width:8;stroke-linejoin:round;stroke-miterlimit:4;stroke-dasharray:none;stroke-opacity:1"
         id="rect3303"
         width="173.34364"
         height="370.90997"
         x="-195.67393"
         y="79.011879"
         transform="matrix(0.7071068,0.7071068,-0.7071068,0.7071068,0,0)" />
    </clipPath>
    <clipPath
       clipPathUnits="userSpaceOnUse"
       id="clipPath3297">
      <rect
         style="opacity:1;fill:#edd400;fill-opacity:1;stroke:none;stroke-width:8;stroke-linejoin:round;stroke-miterlimit:4;stroke-dasharray:none;stroke-opacity:1"
         id="rect3299"
         width="173.34364"
         height="370.90997"
         x="-195.67393"
         y="79.011879"
         transform="matrix(0.7071068,0.7071068,-0.7071068,0.7071068,0,0)" />
    </clipPath>
    <inkscape:perspective
       id="perspective2447"
       inkscape:persp3d-origin="372.04724 : 350.78739 : 1"
       inkscape:vp_z="744.09448 : 526.18109 : 1"
       inkscape:vp_y="0 : 1000 : 0"
       inkscape:vp_x="0 : 526.18109 : 1"
       sodipodi:type="inkscape:persp3d" />
    <inkscape:perspective
       sodipodi:type="inkscape:persp3d"
       inkscape:vp_x="0 : 526.18109 : 1"
       inkscape:vp_y="0 : 1000 : 0"
       inkscape:vp_z="744.09448 : 526.18109 : 1"
       inkscape:persp3d-origin="372.04724 : 350.78739 : 1"
       id="perspective10" />
    <clipPath
       clipPathUnits="userSpaceOnUse"
       id="clipPath2920">
      <rect
         clip-path="url(#clipPath3337)"
         y="79.768837"
         x="-195.29546"
         height="370.90997"
         width="173.34364"
         id="rect2922"
         style="fill:#edd400;fill-opacity:1;stroke:none;stroke-width:8;stroke-linejoin:round;stroke-miterlimit:4;stroke-dasharray:none;stroke-opacity:1"
         transform="matrix(0.3535143,0.3535143,-0.7071068,0.7071068,-7.6282079,-8.1634383)" />
    </clipPath>
    <clipPath
       clipPathUnits="userSpaceOnUse"
       id="clipPath2924">
      <rect
         clip-path="url(#clipPath3337)"
         y="79.768837"
         x="-195.29546"
         height="370.90997"
         width="173.34364"
         id="rect2926"
         style="fill:#edd400;fill-opacity:1;stroke:none;stroke-width:8;stroke-linejoin:round;stroke-miterlimit:4;stroke-dasharray:none;stroke-opacity:1"
         transform="matrix(0.3535143,0.3535143,-0.7071068,0.7071068,-7.6282079,-8.1634383)" />
    </clipPath>
    <clipPath
       clipPathUnits="userSpaceOnUse"
       id="clipPath2928">
      <rect
         clip-path="url(#clipPath3337)"
         y="79.768837"
         x="-195.29546"
         height="370.90997"
         width="173.34364"
         id="rect2930"
         style="fill:#edd400;fill-opacity:1;stroke:none;stroke-width:8;stroke-linejoin:round;stroke-miterlimit:4;stroke-dasharray:none;stroke-opacity:1"
         transform="matrix(0.3535143,0.3535143,-0.7071068,0.7071068,-7.6282079,-8.1634383)" />
    </clipPath>
    <clipPath
       clipPathUnits="userSpaceOnUse"
       id="clipPath2932">
      <rect
         clip-path="url(#clipPath3337)"
         y="79.768837"
         x="-195.29546"
         height="370.90997"
         width="173.34364"
         id="rect2934"
         style="fill:#edd400;fill-opacity:1;stroke:none;stroke-width:8;stroke-linejoin:round;stroke-miterlimit:4;stroke-dasharray:none;stroke-opacity:1"
         transform="matrix(0.3535143,0.3535143,-0.7071068,0.7071068,-7.6282079,-8.1634383)" />
    </clipPath>
    <clipPath
       clipPathUnits="userSpaceOnUse"
       id="clipPath2936">
      <rect
         clip-path="url(#clipPath3337)"
         y="79.768837"
         x="-195.29546"
         height="370.90997"
         width="173.34364"
         id="rect2938"
         style="fill:#edd400;fill-opacity:1;stroke:none;stroke-width:8;stroke-linejoin:round;stroke-miterlimit:4;stroke-dasharray:none;stroke-opacity:1"
         transform="matrix(0.3535143,0.3535143,-0.7071068,0.7071068,-7.6282079,-8.1634383)" />
    </clipPath>
    <clipPath
       clipPathUnits="userSpaceOnUse"
       id="clipPath2940">
      <rect
         clip-path="url(#clipPath3337)"
         y="79.768837"
         x="-195.29546"
         height="370.90997"
         width="173.34364"
         id="rect2942"
         style="fill:#edd400;fill-opacity:1;stroke:none;stroke-width:8;stroke-linejoin:round;stroke-miterlimit:4;stroke-dasharray:none;stroke-opacity:1"
         transform="matrix(0.3535143,0.3535143,-0.7071068,0.7071068,-7.6282079,-8.1634383)" />
    </clipPath>
    <clipPath
       clipPathUnits="userSpaceOnUse"
       id="clipPath2944">
      <rect
         clip-path="url(#clipPath3337)"
         y="79.768837"
         x="-195.29546"
         height="370.90997"
         width="173.34364"
         id="rect2946"
         style="fill:#edd400;fill-opacity:1;stroke:none;stroke-width:8;stroke-linejoin:round;stroke-miterlimit:4;stroke-dasharray:none;stroke-opacity:1"
         transform="matrix(0.3535143,0.3535143,-0.7071068,0.7071068,-7.6282079,-8.1634383)" />
    </clipPath>
    <clipPath
       clipPathUnits="userSpaceOnUse"
       id="clipPath2948">
      <rect
         clip-path="url(#clipPath3337)"
         y="79.768837"
         x="-195.29546"
         height="370.90997"
         width="173.34364"
         id="rect2950"
         style="fill:#edd400;fill-opacity:1;stroke:none;stroke-width:8;stroke-linejoin:round;stroke-miterlimit:4;stroke-dasharray:none;stroke-opacity:1"
         transform="matrix(0.3535143,0.3535143,-0.7071068,0.7071068,-7.6282079,-8.1634383)" />
    </clipPath>
    <clipPath
       clipPathUnits="userSpaceOnUse"
       id="clipPath2952">
      <rect
         clip-path="url(#clipPath3337)"
         y="79.768837"
         x="-195.29546"
         height="370.90997"
         width="173.34364"
         id="rect2954"
         style="fill:#edd400;fill-opacity:1;stroke:none;stroke-width:8;stroke-linejoin:round;stroke-miterlimit:4;stroke-dasharray:none;stroke-opacity:1"
         transform="matrix(0.3535143,0.3535143,-0.7071068,0.7071068,-7.6282079,-8.1634383)" />
    </clipPath>
    <clipPath
       clipPathUnits="userSpaceOnUse"
       id="clipPath2956">
      <rect
         clip-path="url(#clipPath3337)"
         y="79.768837"
         x="-195.29546"
         height="370.90997"
         width="173.34364"
         id="rect2958"
         style="fill:#edd400;fill-opacity:1;stroke:none;stroke-width:8;stroke-linejoin:round;stroke-miterlimit:4;stroke-dasharray:none;stroke-opacity:1"
         transform="matrix(0.3535143,0.3535143,-0.7071068,0.7071068,-7.6282079,-8.1634383)" />
    </clipPath>
    <clipPath
       clipPathUnits="userSpaceOnUse"
       id="clipPath2960">
      <rect
         clip-path="url(#clipPath3337)"
         y="79.768837"
         x="-195.29546"
         height="370.90997"
         width="173.34364"
         id="rect2962"
         style="fill:#edd400;fill-opacity:1;stroke:none;stroke-width:8;stroke-linejoin:round;stroke-miterlimit:4;stroke-dasharray:none;stroke-opacity:1"
         transform="matrix(0.4999447,0,0,1,-11.16638,-0.378465)" />
    </clipPath>
    <inkscape:perspective
       sodipodi:type="inkscape:persp3d"
       inkscape:vp_x="0 : 526.18109 : 1"
       inkscape:vp_y="0 : 1000 : 0"
       inkscape:vp_z="744.09448 : 526.18109 : 1"
       inkscape:persp3d-origin="372.04724 : 350.78739 : 1"
       id="perspective2518" />
    <inkscape:perspective
       sodipodi:type="inkscape:persp3d"
       inkscape:vp_x="0 : 98.5 : 1"
       inkscape:vp_y="0 : 1000 : 0"
       inkscape:vp_z="197 : 98.5 : 1"
       inkscape:persp3d-origin="98.5 : 65.666667 : 1"
       id="perspective2455" />
    <inkscape:perspective
       id="perspective3546"
       inkscape:persp3d-origin="372.04724 : 350.78739 : 1"
       inkscape:vp_z="744.09448 : 526.18109 : 1"
       inkscape:vp_y="0 : 1000 : 0"
       inkscape:vp_x="0 : 526.18109 : 1"
       sodipodi:type="inkscape:persp3d" />
  </defs>
  <sodipodi:namedview
     inkscape:document-units="in"
     pagecolor="#ffffff"
     bordercolor="#666666"
     borderopacity="1.0"
     inkscape:pageopacity="0.0"
     inkscape:pageshadow="2"
     inkscape:zoom="0.46666667"
     inkscape:cx="382.5"
     inkscape:cy="495"
     inkscape:current-layer="layer1"
     id="namedview2387"
     showgrid="false"
     inkscape:window-width="916"
     inkscape:window-height="670"
     inkscape:window-x="352"
     inkscape:window-y="0" />
  <metadata
     id="metadata2389">
    <rdf:RDF>
      <cc:Work
         rdf:about="">
        <dc:format>image/svg+xml</dc:format>
        <dc:type
           rdf:resource="http://purl.org/dc/dcmitype/StillImage" />
      </cc:Work>
    </rdf:RDF>
  </metadata>
  <g
     inkscape:label="Layer 1"
     inkscape:groupmode="layer"
     id="layer1">
    <flowRoot
       transform="matrix(0,1,-1,0,743.18896,-361.38007)"
       style="font-size:56px;font-style:normal;font-weight:normal;fill:#000000;fill-opacity:1;stroke:none;stroke-width:1px;stroke-linecap:butt;stroke-linejoin:miter;stroke-opacity:1;font-family:Bitstream Vera Sans"
       id="flowRoot3442"
       xml:space="preserve"><flowRegion
         id="flowRegion3444"><rect
           y="1072.1176"
           x="-243.14342"
           height="107.8949"
           width="123.09135"
           id="rect3446" /></flowRegion><flowPara
         id="flowPara3448" /></flowRoot>    <text
       xml:space="preserve"
       style="font-size:23.71747208px;font-style:normal;font-weight:normal;fill:#000000;fill-opacity:1;stroke:none;stroke-width:1px;stroke-linecap:butt;stroke-linejoin:miter;stroke-opacity:1;font-family:Bitstream Vera Sans"
       x="-274.14142"
       y="914.9375"
       id="text2383"><tspan
         sodipodi:role="line"
         id="tspan2385"
         x="-274.14142"
         y="914.9375" /><tspan
         sodipodi:role="line"
         x="-274.14142"
         y="944.58435"
         id="tspan2387" /></text>
    <flowRoot
       xml:space="preserve"
       id="flowRoot3762"
       style="fill:black;stroke:none;stroke-opacity:1;stroke-width:1px;stroke-linejoin:miter;stroke-linecap:butt;fill-opacity:1;font-family:Bitstream Vera Sans;font-style:normal;font-weight:normal;font-size:40px"><flowRegion
         id="flowRegion3764"><rect
           id="rect3766"
           width="430.12482"
           height="495.35703"
           x="165.119"
           y="241.86821" /></flowRegion><flowPara
         id="flowPara3768" /></flowRoot>    <g
       id="g3830"
       transform="translate(-3.6230034e-8,-22.381164)">
      <g
         id="g3021">
        <g
           id="g2974"
           transform="translate(0.5522845,-2)">
          <rect
             transform="matrix(0,1.4591837,-1.4591837,0,768.40576,1022.584)"
             style="fill:#ffffff;fill-opacity:1;stroke:none;stroke-width:8;stroke-linejoin:round;stroke-miterlimit:4;stroke-dasharray:none;stroke-opacity:1"
             id="rect2453"
             width="173.34364"
             height="370.90997"
             x="-195.29546"
             y="79.768837"
             clip-path="url(#clipPath2960)" />
          <rect
             style="fill:#000000;fill-opacity:1;stroke:none;stroke-width:8;stroke-linejoin:round;stroke-miterlimit:4;stroke-dasharray:none;stroke-opacity:1"
             id="rect3225"
             width="349.71512"
             height="20.437897"
             x="-383.54156"
             y="-83.076958"
             transform="matrix(1.0317987,1.0317987,-1.0317987,1.0317987,768.40576,1022.584)"
             clip-path="url(#clipPath2956)" />
          <rect
             style="fill:#000000;fill-opacity:1;stroke:none;stroke-width:8;stroke-linejoin:round;stroke-miterlimit:4;stroke-dasharray:none;stroke-opacity:1"
             id="rect3227"
             width="349.71512"
             height="20.437897"
             x="-395.58469"
             y="-45.34177"
             transform="matrix(1.0317987,1.0317987,-1.0317987,1.0317987,768.40576,1022.584)"
             clip-path="url(#clipPath2952)" />
          <rect
             style="fill:#000000;fill-opacity:1;stroke:none;stroke-width:8;stroke-linejoin:round;stroke-miterlimit:4;stroke-dasharray:none;stroke-opacity:1"
             id="rect3235"
             width="349.71512"
             height="20.437897"
             x="-395.45087"
             y="-9.0785189"
             transform="matrix(1.0317987,1.0317987,-1.0317987,1.0317987,768.40576,1022.584)"
             clip-path="url(#clipPath2948)" />
          <rect
             style="fill:#000000;fill-opacity:1;stroke:none;stroke-width:8;stroke-linejoin:round;stroke-miterlimit:4;stroke-dasharray:none;stroke-opacity:1"
             id="rect3237"
             width="349.71512"
             height="20.437897"
             x="-407.49402"
             y="28.65667"
             transform="matrix(1.0317987,1.0317987,-1.0317987,1.0317987,768.40576,1022.584)"
             clip-path="url(#clipPath2944)" />
          <rect
             style="fill:#000000;fill-opacity:1;stroke:none;stroke-width:8;stroke-linejoin:round;stroke-miterlimit:4;stroke-dasharray:none;stroke-opacity:1"
             id="rect3239"
             width="349.71512"
             height="20.437897"
             x="-398.12714"
             y="66.391861"
             transform="matrix(1.0317987,1.0317987,-1.0317987,1.0317987,768.40576,1022.584)"
             clip-path="url(#clipPath2940)" />
          <rect
             style="fill:#000000;fill-opacity:1;stroke:none;stroke-width:8;stroke-linejoin:round;stroke-miterlimit:4;stroke-dasharray:none;stroke-opacity:1"
             id="rect3241"
             width="349.71512"
             height="20.437897"
             x="-410.17026"
             y="104.12705"
             transform="matrix(1.0317987,1.0317987,-1.0317987,1.0317987,768.40576,1022.584)"
             clip-path="url(#clipPath2936)" />
          <rect
             style="fill:#000000;fill-opacity:1;stroke:none;stroke-width:8;stroke-linejoin:round;stroke-miterlimit:4;stroke-dasharray:none;stroke-opacity:1"
             id="rect3243"
             width="349.71512"
             height="20.437897"
             x="-476.2738"
             y="141.327"
             transform="matrix(1.0317987,1.0317987,-1.0317987,1.0317987,768.40576,1022.584)"
             clip-path="url(#clipPath2932)" />
          <rect
             style="fill:#000000;fill-opacity:1;stroke:none;stroke-width:8;stroke-linejoin:round;stroke-miterlimit:4;stroke-dasharray:none;stroke-opacity:1"
             id="rect3245"
             width="349.71512"
             height="20.437897"
             x="-488.31693"
             y="179.06218"
             transform="matrix(1.0317987,1.0317987,-1.0317987,1.0317987,768.40576,1022.584)"
             clip-path="url(#clipPath2928)" />
          <rect
             style="fill:#000000;fill-opacity:1;stroke:none;stroke-width:8;stroke-linejoin:round;stroke-miterlimit:4;stroke-dasharray:none;stroke-opacity:1"
             id="rect3247"
             width="349.71512"
             height="20.437897"
             x="-482.69681"
             y="216.26213"
             transform="matrix(1.0317987,1.0317987,-1.0317987,1.0317987,768.40576,1022.584)"
             clip-path="url(#clipPath2924)" />
          <rect
             style="fill:#000000;fill-opacity:1;stroke:none;stroke-width:8;stroke-linejoin:round;stroke-miterlimit:4;stroke-dasharray:none;stroke-opacity:1"
             id="rect3249"
             width="349.71512"
             height="20.437897"
             x="-494.73993"
             y="253.99731"
             transform="matrix(1.0317987,1.0317987,-1.0317987,1.0317987,768.40576,1022.584)"
             clip-path="url(#clipPath2920)" />
        </g>
        <g
           id="g3015"
           transform="translate(3.0517578e-5,0)">
          <rect
             transform="matrix(0,1,-1,0,0,0)"
             style="fill:#000000;fill-opacity:1;stroke:none;stroke-width:8;stroke-linejoin:round;stroke-miterlimit:4;stroke-dasharray:none;stroke-opacity:1"
             id="rect3354"
             width="691.24146"
             height="541.22577"
             x="172.48087"
             y="-653.11285" />
          <text
             transform="matrix(0,1,-1,0,0,0)"
             xml:space="preserve"
             style="font-size:26.43074417px;font-style:normal;font-variant:normal;font-weight:bold;font-stretch:normal;text-align:start;line-height:125%;writing-mode:lr-tb;text-anchor:start;fill:#ffffff;fill-opacity:1;stroke:none;stroke-width:1px;stroke-linecap:butt;stroke-linejoin:miter;stroke-opacity:1;font-family:Futura Std;-inkscape-font-specification:Futura Std Bold"
             x="753.65387"
             y="-126.77319"
             id="text3356"
             sodipodi:linespacing="125%"><tspan
               y="-126.77319"
               x="753.65387"
               id="tspan2964"
               sodipodi:role="line">FOO6</tspan><tspan
               y="-93.734764"
               x="753.65387"
               id="tspan2966"
               sodipodi:role="line" /></text>
        </g>
        <g
           id="g2991"
           transform="translate(0.5522845,-817.33376)">
          <rect
             transform="matrix(0,1.4591837,-1.4591837,0,768.40576,1022.584)"
             style="fill:#ffffff;fill-opacity:1;stroke:none;stroke-width:8;stroke-linejoin:round;stroke-miterlimit:4;stroke-dasharray:none;stroke-opacity:1"
             id="rect2993"
             width="173.34364"
             height="370.90997"
             x="-195.29546"
             y="79.768837"
             clip-path="url(#clipPath2960)" />
          <rect
             style="fill:#000000;fill-opacity:1;stroke:none;stroke-width:8;stroke-linejoin:round;stroke-miterlimit:4;stroke-dasharray:none;stroke-opacity:1"
             id="rect2995"
             width="349.71512"
             height="20.437897"
             x="-383.54156"
             y="-83.076958"
             transform="matrix(1.0317987,1.0317987,-1.0317987,1.0317987,768.40576,1022.584)"
             clip-path="url(#clipPath2956)" />
          <rect
             style="fill:#000000;fill-opacity:1;stroke:none;stroke-width:8;stroke-linejoin:round;stroke-miterlimit:4;stroke-dasharray:none;stroke-opacity:1"
             id="rect2997"
             width="349.71512"
             height="20.437897"
             x="-395.58469"
             y="-45.34177"
             transform="matrix(1.0317987,1.0317987,-1.0317987,1.0317987,768.40576,1022.584)"
             clip-path="url(#clipPath2952)" />
          <rect
             style="fill:#000000;fill-opacity:1;stroke:none;stroke-width:8;stroke-linejoin:round;stroke-miterlimit:4;stroke-dasharray:none;stroke-opacity:1"
             id="rect2999"
             width="349.71512"
             height="20.437897"
             x="-395.45087"
             y="-9.0785189"
             transform="matrix(1.0317987,1.0317987,-1.0317987,1.0317987,768.40576,1022.584)"
             clip-path="url(#clipPath2948)" />
          <rect
             style="fill:#000000;fill-opacity:1;stroke:none;stroke-width:8;stroke-linejoin:round;stroke-miterlimit:4;stroke-dasharray:none;stroke-opacity:1"
             id="rect3001"
             width="349.71512"
             height="20.437897"
             x="-407.49402"
             y="28.65667"
             transform="matrix(1.0317987,1.0317987,-1.0317987,1.0317987,768.40576,1022.584)"
             clip-path="url(#clipPath2944)" />
          <rect
             style="fill:#000000;fill-opacity:1;stroke:none;stroke-width:8;stroke-linejoin:round;stroke-miterlimit:4;stroke-dasharray:none;stroke-opacity:1"
             id="rect3003"
             width="349.71512"
             height="20.437897"
             x="-398.12714"
             y="66.391861"
             transform="matrix(1.0317987,1.0317987,-1.0317987,1.0317987,768.40576,1022.584)"
             clip-path="url(#clipPath2940)" />
          <rect
             style="fill:#000000;fill-opacity:1;stroke:none;stroke-width:8;stroke-linejoin:round;stroke-miterlimit:4;stroke-dasharray:none;stroke-opacity:1"
             id="rect3005"
             width="349.71512"
             height="20.437897"
             x="-410.17026"
             y="104.12705"
             transform="matrix(1.0317987,1.0317987,-1.0317987,1.0317987,768.40576,1022.584)"
             clip-path="url(#clipPath2936)" />
          <rect
             style="fill:#000000;fill-opacity:1;stroke:none;stroke-width:8;stroke-linejoin:round;stroke-miterlimit:4;stroke-dasharray:none;stroke-opacity:1"
             id="rect3007"
             width="349.71512"
             height="20.437897"
             x="-476.2738"
             y="141.327"
             transform="matrix(1.0317987,1.0317987,-1.0317987,1.0317987,768.40576,1022.584)"
             clip-path="url(#clipPath2932)" />
          <rect
             style="fill:#000000;fill-opacity:1;stroke:none;stroke-width:8;stroke-linejoin:round;stroke-miterlimit:4;stroke-dasharray:none;stroke-opacity:1"
             id="rect3009"
             width="349.71512"
             height="20.437897"
             x="-488.31693"
             y="179.06218"
             transform="matrix(1.0317987,1.0317987,-1.0317987,1.0317987,768.40576,1022.584)"
             clip-path="url(#clipPath2928)" />
          <rect
             style="fill:#000000;fill-opacity:1;stroke:none;stroke-width:8;stroke-linejoin:round;stroke-miterlimit:4;stroke-dasharray:none;stroke-opacity:1"
             id="rect3011"
             width="349.71512"
             height="20.437897"
             x="-482.69681"
             y="216.26213"
             transform="matrix(1.0317987,1.0317987,-1.0317987,1.0317987,768.40576,1022.584)"
             clip-path="url(#clipPath2924)" />
          <rect
             style="fill:#000000;fill-opacity:1;stroke:none;stroke-width:8;stroke-linejoin:round;stroke-miterlimit:4;stroke-dasharray:none;stroke-opacity:1"
             id="rect3013"
             width="349.71512"
             height="20.437897"
             x="-494.73993"
             y="253.99731"
             transform="matrix(1.0317987,1.0317987,-1.0317987,1.0317987,768.40576,1022.584)"
             clip-path="url(#clipPath2920)" />
        </g>
      </g>
      <g
         style="fill:#ffffff"
         transform="matrix(0.7275015,0,0,0.7275015,118.35463,956.93519)"
         id="g3647">
        <g
           style="fill:#ffffff"
           transform="translate(-52.746502,-515.35803)"
           id="g3614">
          <path
             style="fill:#ffffff;fill-opacity:1;stroke:none;stroke-width:2.48000002;stroke-miterlimit:4;stroke-dasharray:none;stroke-opacity:1"
             d="M 399.21875,-696.4375 C 365.8223,-696.43751 338.6875,-669.3027 338.6875,-635.90625 C 338.68749,-602.50979 365.8223,-575.375 399.21875,-575.375 C 432.6152,-575.37501 459.71875,-602.50979 459.71875,-635.90625 C 459.71874,-669.30269 432.61521,-696.4375 399.21875,-696.4375 z M 399.21875,-681.84375 C 424.59469,-681.84376 445.15625,-661.28218 445.15625,-635.90625 C 445.15624,-610.5303 424.59469,-589.9375 399.21875,-589.9375 C 373.84281,-589.93751 353.25,-610.53031 353.25,-635.90625 C 353.24999,-661.28218 373.84282,-681.84375 399.21875,-681.84375 z"
             id="path3616"
             transform="translate(61.97281,179.10071)" />
          <path
             sodipodi:nodetypes="cccsssccssc"
             id="path3618"
             style="fill:#ffffff"
             d="M 460.73987,-490.07749 C 444.97307,-490.07749 431.76259,-479.09604 428.33708,-464.36699 L 445.43681,-464.36699 C 448.30544,-470.61439 453.41906,-474.95366 460.73987,-474.95366 C 470.75789,-474.95366 477.68781,-466.8231 477.68781,-456.80508 C 477.68781,-446.78706 470.75789,-439.85765 460.73987,-439.85765 C 453.41905,-439.85765 448.30544,-442.99576 445.43681,-449.24316 L 428.33708,-449.24316 C 431.76259,-434.5141 444.97307,-423.53267 460.73987,-423.53267 C 479.10624,-423.53267 494.01228,-438.43871 494.01228,-456.80508 C 494.01228,-475.17145 479.10624,-490.07749 460.73987,-490.07749 z" />
        </g>
        <path
           style="font-size:90px;font-style:normal;font-variant:normal;font-weight:bold;font-stretch:normal;text-align:start;line-height:125%;writing-mode:lr-tb;text-anchor:start;fill:#ffffff;fill-opacity:1;stroke:none;stroke-width:1px;stroke-linecap:butt;stroke-linejoin:miter;stroke-opacity:1;font-family:Futura BT;-inkscape-font-specification:Futura BT Bold"
           d="M 230.36358,-1005.9136 C 225.76395,-1005.9135 221.36356,-1005.0483 217.14484,-1003.3199 C 212.95536,-1001.6206 209.24442,-999.20258 206.05108,-996.03858 C 202.74053,-992.84517 200.21709,-989.20454 198.48858,-985.13233 C 196.78936,-981.08932 195.95733,-976.76314 195.95733,-972.16358 C 195.95733,-967.59324 196.78936,-963.29831 198.48858,-959.22608 C 200.21709,-955.15379 202.74053,-951.5132 206.05108,-948.31983 C 209.24442,-945.15577 212.95536,-942.70462 217.14484,-940.97608 C 221.36356,-939.27686 225.76395,-938.41361 230.36358,-938.41358 C 234.90456,-938.41358 239.26978,-939.27689 243.48858,-940.97608 C 247.70728,-942.70459 251.45728,-945.15579 254.73858,-948.31983 C 257.99047,-951.51318 260.4768,-955.12059 262.17608,-959.16358 C 263.87522,-963.20652 264.73851,-967.53463 264.73858,-972.16358 C 264.73851,-976.76315 263.87327,-981.12251 262.14483,-985.19483 C 260.44554,-989.26705 257.96118,-992.87446 254.73858,-996.03858 C 251.51587,-999.20259 247.79908,-1001.6206 243.55109,-1003.3199 C 239.3323,-1005.0483 234.93385,-1005.9135 230.36358,-1005.9136 z M 230.36358,-991.06983 C 235.13893,-991.06978 239.14089,-989.26704 242.36358,-985.66358 C 245.58618,-982.06002 247.17603,-977.55416 247.17608,-972.16358 C 247.17603,-966.71433 245.58814,-962.20652 242.39483,-958.63233 C 239.23072,-955.0581 235.22682,-953.28856 230.36358,-953.28858 C 225.41237,-953.28857 221.37333,-955.05614 218.23858,-958.60108 C 215.1038,-962.14598 213.51981,-966.65573 213.51983,-972.16358 C 213.51981,-977.58346 215.10575,-982.08931 218.26984,-985.66358 C 221.46316,-989.26705 225.50026,-991.06977 230.36358,-991.06983 z"
           id="path3620" />
        <path
           style="font-size:90px;font-style:normal;font-variant:normal;font-weight:bold;font-stretch:normal;text-align:start;line-height:125%;writing-mode:lr-tb;text-anchor:start;fill:#ffffff;fill-opacity:1;stroke:none;stroke-width:1px;stroke-linecap:butt;stroke-linejoin:miter;stroke-opacity:1;font-family:Futura BT;-inkscape-font-specification:Futura BT Bold"
           d="M 306.35744,-1005.9136 C 301.75779,-1005.9135 297.32616,-1005.0483 293.10744,-1003.3199 C 288.91796,-1001.6206 285.23829,-999.20258 282.04494,-996.03858 C 278.73438,-992.84517 276.21095,-989.20454 274.48244,-985.13233 C 272.78323,-981.08932 271.95119,-976.76314 271.95119,-972.16358 C 271.95119,-967.59324 272.78322,-963.29831 274.48244,-959.22608 C 276.21096,-955.15379 278.73438,-951.5132 282.04494,-948.31983 C 285.23829,-945.15577 288.91796,-942.70462 293.10744,-940.97608 C 297.32616,-939.27686 301.75779,-938.41361 306.35744,-938.41358 C 310.89842,-938.41358 315.26364,-939.27689 319.48244,-940.97608 C 323.70114,-942.70459 327.45114,-945.15579 330.73244,-948.31983 C 333.98433,-951.51318 336.47066,-955.12059 338.16994,-959.16358 C 339.8691,-963.20652 340.70112,-967.53463 340.70119,-972.16358 C 340.70112,-976.76315 339.83588,-981.12251 338.10744,-985.19483 C 336.40815,-989.26705 333.95502,-992.87446 330.73244,-996.03858 C 327.50974,-999.20259 323.76169,-1001.6206 319.51369,-1003.3199 C 315.29489,-1005.0483 310.92772,-1005.9135 306.35744,-1005.9136 z M 306.35744,-991.06983 C 311.13278,-991.06978 315.13473,-989.26704 318.35744,-985.66358 C 321.58005,-982.06002 323.16989,-977.55416 323.16994,-972.16358 C 323.16989,-966.71433 321.582,-962.20652 318.38869,-958.63233 C 315.22458,-955.0581 311.22068,-953.28856 306.35744,-953.28858 C 301.40623,-953.28857 297.33593,-955.05614 294.20119,-958.60108 C 291.06641,-962.14598 289.51368,-966.65573 289.51369,-972.16358 C 289.51368,-977.58346 291.0996,-982.08931 294.26369,-985.66358 C 297.45703,-989.26705 301.49412,-991.06977 306.35744,-991.06983 z"
           id="path3622" />
        <path
           style="font-size:90px;font-style:normal;font-variant:normal;font-weight:bold;font-stretch:normal;text-align:start;line-height:125%;writing-mode:lr-tb;text-anchor:start;fill:#ffffff;fill-opacity:1;stroke:none;stroke-width:1px;stroke-linecap:butt;stroke-linejoin:miter;stroke-opacity:1;font-family:Futura BT;-inkscape-font-specification:Futura BT Bold"
           d="M 510.56392,-1005.9136 C 505.96427,-1005.9135 501.53264,-1005.0483 497.31391,-1003.3199 C 493.12444,-1001.6206 489.44476,-999.20258 486.25142,-996.03858 C 482.94085,-992.84517 480.41741,-989.20454 478.68892,-985.13233 C 476.9897,-981.08932 476.15766,-976.76314 476.15767,-972.16358 C 476.15766,-967.59324 476.98969,-963.29831 478.68892,-959.22608 C 480.41743,-955.15379 482.94085,-951.5132 486.25142,-948.31983 C 489.44476,-945.15577 493.12444,-942.70462 497.31391,-940.97608 C 501.53264,-939.27686 505.96427,-938.41361 510.56392,-938.41358 C 515.10489,-938.41358 519.47012,-939.27689 523.68891,-940.97608 C 527.90762,-942.70459 531.65761,-945.15579 534.93892,-948.31983 C 538.1908,-951.51318 540.67714,-955.12059 542.37641,-959.16358 C 544.07557,-963.20652 544.9076,-967.53463 544.90767,-972.16358 C 544.9076,-976.76315 544.04236,-981.12251 542.31392,-985.19483 C 540.61463,-989.26705 538.16149,-992.87446 534.93892,-996.03858 C 531.7162,-999.20259 527.96816,-1001.6206 523.72017,-1003.3199 C 519.50137,-1005.0483 515.13418,-1005.9135 510.56392,-1005.9136 z M 510.56392,-991.06983 C 515.33926,-991.06978 519.3412,-989.26704 522.56392,-985.66358 C 525.78651,-982.06002 527.37636,-977.55416 527.37641,-972.16358 C 527.37636,-966.71433 525.78848,-962.20652 522.59517,-958.63233 C 519.43105,-955.0581 515.42715,-953.28856 510.56392,-953.28858 C 505.61271,-953.28857 501.54241,-955.05614 498.40767,-958.60108 C 495.27287,-962.14598 493.72014,-966.65573 493.72017,-972.16358 C 493.72014,-977.58346 495.30607,-982.08931 498.47017,-985.66358 C 501.6635,-989.26705 505.7006,-991.06977 510.56392,-991.06983 z"
           id="path3624" />
        <path
           style="font-size:90px;font-style:normal;font-variant:normal;font-weight:bold;font-stretch:normal;text-align:start;line-height:125%;writing-mode:lr-tb;text-anchor:start;fill:#ffffff;fill-opacity:1;stroke:none;stroke-width:1px;stroke-linecap:butt;stroke-linejoin:miter;stroke-opacity:1;font-family:Futura BT;-inkscape-font-specification:Futura BT Bold"
           d="M 552.12026,-1004.3355 L 552.12026,-939.99168 L 568.55776,-939.99168 L 568.55776,-965.1792 L 583.33901,-939.99168 L 603.1515,-939.99168 L 585.62026,-965.9292 C 590.30772,-966.95456 593.8761,-969.01119 596.30776,-972.1167 C 598.76865,-975.25142 599.99517,-979.32368 599.99526,-984.3042 C 599.9952,-987.5854 599.34875,-990.57953 598.08901,-993.3042 C 596.85848,-996.02875 595.09087,-998.26506 592.77651,-1000.023 C 590.72567,-1001.5757 588.27453,-1002.6909 585.43276,-1003.3355 C 582.62021,-1004.0093 577.64167,-1004.3354 570.46401,-1004.3355 L 552.12026,-1004.3355 z M 568.55776,-990.83544 L 572.08901,-990.83544 C 575.92686,-990.8354 578.63392,-990.14985 580.24526,-988.77295 C 581.88585,-987.42524 582.71399,-985.1518 582.71401,-981.9292 C 582.71396,-979.17526 581.84681,-977.15572 580.08901,-975.8667 C 578.36046,-974.5776 575.58706,-973.92916 571.80776,-973.9292 L 568.55776,-973.9292 L 568.55776,-990.83544 z"
           id="path3626" />
        <path
           style="font-size:90px;font-style:normal;font-variant:normal;font-weight:bold;font-stretch:normal;text-align:start;line-height:125%;writing-mode:lr-tb;text-anchor:start;fill:#ffffff;fill-opacity:1;stroke:none;stroke-width:1px;stroke-linecap:butt;stroke-linejoin:miter;stroke-opacity:1;font-family:Futura BT;-inkscape-font-specification:Futura BT Bold"
           d="M 610.3641,-1004.3354 L 610.3641,-939.9917 L 626.80159,-939.9917 L 626.80159,-961.21045 L 629.9891,-961.21045 L 632.95785,-961.21045 C 638.37773,-961.21043 642.34066,-961.53269 644.80159,-962.14795 C 647.2625,-962.76316 649.39137,-963.77292 651.20784,-965.1792 C 653.61013,-967.05417 655.4148,-969.43503 656.64535,-972.33545 C 657.87576,-975.26511 658.48908,-978.65377 658.4891,-982.49171 C 658.48905,-986.09518 657.87384,-989.37447 656.61409,-992.30421 C 655.38358,-995.26314 653.58081,-997.71625 651.20784,-999.67921 C 649.18631,-1001.3784 646.73316,-1002.5697 643.83285,-1003.2729 C 640.93242,-1003.976 635.88552,-1004.3354 628.70784,-1004.3354 L 610.3641,-1004.3354 z M 626.80159,-990.49171 L 630.33285,-990.49171 C 634.49296,-990.49166 637.37966,-989.91548 639.02035,-988.77296 C 640.66093,-987.63034 641.4891,-985.71822 641.4891,-983.02296 C 641.48907,-980.23971 640.65902,-978.25729 638.9891,-977.08546 C 637.31915,-975.94285 634.3641,-975.36667 630.14535,-975.36671 L 626.80159,-975.36671 L 626.80159,-990.49171 z"
           id="path3628" />
        <g
           style="fill:#ffffff"
           transform="translate(-38.603082,-515.35803)"
           id="g3630">
          <path
             id="path3632"
             d="M 147.11139,-424.63711 L 147.11139,-488.97304 L 186.53034,-488.97304 L 186.53034,-474.8666 L 164.20612,-474.8666 L 164.20612,-463.70449 L 185.25592,-463.70449 L 185.25592,-449.90566 L 164.20612,-449.90566 L 164.20612,-424.63711 L 147.11139,-424.63711"
             style="font-size:90px;font-style:normal;font-variant:normal;font-weight:bold;font-stretch:normal;text-align:start;line-height:125%;writing-mode:lr-tb;text-anchor:start;fill:#ffffff;fill-opacity:1;stroke:none;stroke-width:1px;stroke-linecap:butt;stroke-linejoin:miter;stroke-opacity:1;font-family:Futura BT;-inkscape-font-specification:Futura BT Bold" />
          <path
             style="fill:#ffffff;fill-opacity:1;stroke:none;stroke-width:2.48000002;stroke-miterlimit:4;stroke-dasharray:none;stroke-opacity:1"
             d="M 104.84375,-696.4375 C 71.4473,-696.43751 44.3125,-669.3027 44.3125,-635.90625 C 44.3125,-602.50979 71.4473,-575.375 104.84375,-575.375 C 138.24021,-575.37501 165.375,-602.50979 165.375,-635.90625 C 165.375,-669.30269 138.24021,-696.4375 104.84375,-696.4375 z M 104.84375,-681.84375 C 130.21969,-681.84376 150.8125,-661.28218 150.8125,-635.90625 C 150.8125,-610.5303 130.21969,-589.9375 104.84375,-589.9375 C 79.46782,-589.93751 58.90625,-610.53031 58.90625,-635.90625 C 58.90625,-661.28218 79.46782,-681.84375 104.84375,-681.84375 z"
             transform="translate(61.97281,179.10071)"
             id="path3634" />
        </g>
      </g>
      <flowRoot
         transform="translate(6.1155188,73.270706)"
         style="font-size:40px;font-style:normal;font-weight:normal;fill:#ffffff;fill-opacity:1;stroke:none;stroke-width:1px;stroke-linecap:butt;stroke-linejoin:miter;stroke-opacity:1;font-family:Bitstream Vera Sans"
         id="flowRoot3798"
         xml:space="preserve"><flowRegion
           id="flowRegion3800"><rect
             ry="0"
             style="fill:#ffffff"
             y="241.86821"
             x="181.42705"
             height="542.24274"
             width="417.8938"
             id="rect3802" /></flowRegion><flowPara
           id="flowPara3820">FooCorp is a small company producing copyleft films, records, television, books, cartoons and software, plus other fine entertainment related works.</flowPara><flowPara
           id="flowPara3816" /><flowPara
           id="flowPara3828">foocorp.org</flowPara></flowRoot>    </g>
  </g>
</svg>
